[
  {
    "id": "E001",
    "name": {
      "firstname": "Sebastien",
      "lastname": "Deschamps"
    },
    "country": "ee",
    "company": {
      "name": "Company One",
      "id": "C001"
    },
    "contract": {
      "period": {
        "count": 1,
        "time": "month"
      },
      "currency": "EUR",
      "hourlyRate": 15,
      "hours": 8,
      "paymentDate": 27,
      "joined": "2017-09-10"
    },
    "leave": {
      "total": 20,
      "special": 0,
      "daysOff": [
        "10-10-2017",
        "04-12-2017",
        "11-12-2017"
      ]
    }
  },
  {
    "id": "E002",
    "name": {
      "firstname": "Sarah",
      "lastname": "Williams"
    },
    "country": "ee",
    "company": {
      "name": "Company One",
      "id": "C001"
    },
    "contract": {
      "period": {
        "count": 1,
        "time": "month"
      },
      "currency": "EUR",
      "hourlyRate": 21,
      "hours": 8,
      "paymentDate": 27,
      "joined": "2012-01-20"
    },
    "leave": {
      "total": 20,
      "bonus": 2,
      "daysOff": []
    }
  }
]
