[
  {
    "id": "E003",
    "name": {
      "firstname": "John",
      "lastname": "Smith"
    },
    "country": "fi",
    "company": {
      "name": "Company Two",
      "id": "C002"
    },
    "contract": {
      "period": {
        "count": 1,
        "time": "month"
      },
      "currency": "EUR",
      "hourlyRate": 20,
      "hours": 8,
      "paymentDate": 27,
      "joined": "2012-01-20"
    },
    "leave": {
      "total": 20,
      "bonus": 2,
      "daysOff": []
    }
  }
]
