{
    "result": "ok",
    "count": 2,
    "country": "ee",
    "company": {
        "name": "Company One",
        "id": "C001"
    },
    "period": "1 month",
    "from": "2017/10/01",
    "to": "2017/10/31",
    "employees": [{
            "id": "E001",
            "name": {
                "firstname": "Sebastien",
                "lastname": "Deschamps"
            },
            "payroll": {
                "workingDay": 20,
                "leave": 1,
                "total": 19,
                "workEvents": [
                    "2017-10-01", "2017-10-02", "2017-10-03", "..."
                ],
                "salary": {
                    "ammount": 2280,
                    "currency": "EUR"
                }
            }
        },
        {
            "id": "E002",
            "name": {
                "firstname": "Sarah",
                "lastname": "Williams"
            },
            "payroll": {
                "workingDay": 20,
                "leave": 0,
                "total": 20,
                "workEvents": [
                    "2017-10-01", "2017-10-02", "2017-10-03", "..."
                ],
                "salary": {
                    "amount": 3360,
                    "currency": "EUR"
                }
            }
        }
    ]
}
